{
  "Mission_Code": {
    "MissionExt": {
      "Animation": "EXT_262342271",
      "Capoera": "EXT_3624937614",
      "Nuisibles": "EXT_305627650",
      "SAGIR": "EXT_1261576847",
      "Depots sauvages": "EXT_2475377809",
      "Conservatoire du Littoral": "EXT_1956318809",
      "Homard": "EXT_2653223362",
      "Sensibilisation": "EXT_2994324238",
      "Surveillance": "EXT_3645535907",
      "Inventaire": "EXT_2094277424",
      "CTMA": "EXT_2271014637",
      "Chemins d'interet communautaire": "EXT_3787619406"
    },
    "MissionInt": {
      "Réunion": "INT_1415957237",
      "Homard": "INT_2653223362",
      "Nuisibles": "INT_305627650",
      "Espèces Invasives": "INT_2430123286",
      "Dépots Sauvages": "INT_2523112087",
      "Chemins d'interet communautaire": "INT_3787619406",
      "Capoera": "INT_3624937614",
      "Sensibilisation": "INT_2994324238",
      "Surveillance": "INT_416463989",
      "Animation": "INT_262342271",
      "Conservatoire du Littoral": "INT_1956318809",
      "Inventaire": "INT_2094277424",
      "Rangement": "INT_302053381",
      "Divers": "INT_1701065116",
      "Préparation mois de l'environnement": "INT_921908540"
    }
  },
  "Code_Mission": {
    "MissionExt": {
      "EXT_262342271": "Animation",
      "EXT_3624937614": "Capoera",
      "EXT_305627650": "Nuisibles",
      "EXT_1261576847": "SAGIR",
      "EXT_2475377809": "Depots sauvages",
      "EXT_1956318809": "Conservatoire du Littoral",
      "EXT_2653223362": "Homard",
      "EXT_2994324238": "Sensibilisation",
      "EXT_3645535907": "Surveillance",
      "EXT_2094277424": "Inventaire",
      "EXT_2271014637": "CTMA",
      "EXT_3787619406": "Chemins d'interet communautaire"
    },
    "MissionInt": {
      "INT_1415957237": "Réunion",
      "INT_2653223362": "Homard",
      "INT_305627650": "Nuisibles",
      "INT_2430123286": "Espèces Invasives",
      "INT_2523112087": "Dépots Sauvages",
      "INT_3787619406": "Chemins d'interet communautaire",
      "INT_3624937614": "Capoera",
      "INT_2994324238": "Sensibilisation",
      "INT_416463989": "Surveillance",
      "INT_262342271": "Animation",
      "INT_1956318809": "Conservatoire du Littoral",
      "INT_2094277424": "Inventaire",
      "INT_302053381": "Rangement",
      "INT_1701065116": "Divers",
      "INT_921908540": "Préparation mois de l'environnement"
    }
  }
}